{
  "selection": [
    {
      "order": 12,
      "name": "icon-mouse-zoom",
      "prevSize": 32
    },
    {
      "order": 10,
      "name": "icon-rotate-right",
      "prevSize": 32
    },
    {
      "order": 9,
      "name": "icon-rotate-left",
      "prevSize": 32
    },
    {
      "order": 13,
      "name": "icon-mouse-rotate",
      "prevSize": 32
    },
    {
      "order": 7,
      "name": "icon-mouse-move",
      "prevSize": 32
    }
  ],
  "metadata": {
    "name": "B3 Icon",
    "importSize": {
      "width": 48,
      "height": 48
    },
    "designer": "Junyu Pu",
    "designerURL": "",
    "iconsHash": 326862664
  },
  "height": 1024,
  "prevSize": 32,
  "icons": [
    {
      "paths": [
        "M485.264 938.667c0-10.078 0-23.854 0-42.667h142.423c101.073 0 182.979-95.571 182.979-213.491v-255.684h-512v106.758c-4.159 0.195-25.597 0.162-42.667 0.101v-234.859c0-141.472 100.317-256.158 224.124-256.158h149.085c123.78 0 224.124 114.617 224.124 256.158v383.684c0 141.472-100.317 256.158-224.124 256.158h-143.945zM810.667 383.842v-85.018c0-117.952-81.901-213.491-182.979-213.491h-146.042c-101.073 0-182.979 95.571-182.979 213.491v85.018h512zM490.667 192.007c0-35.35 28.726-64.007 64-64.007 35.346 0 64 28.771 64 64.007v85.319c0 35.35-28.726 64.007-64 64.007-35.346 0-64-28.771-64-64.007v-85.319zM501.555 994.052l-30.17 30.17-92.96-92.96c-29.36 18.218-63.998 28.738-101.092 28.738-106.039 0-192-85.961-192-192s85.961-192 192-192c106.039 0 192 85.961 192 192 0 53.485-21.869 101.862-57.154 136.676l89.376 89.376zM277.333 917.333c82.475 0 149.333-66.859 149.333-149.333s-66.859-149.333-149.333-149.333c-82.475 0-149.333 66.859-149.333 149.333s66.859 149.333 149.333 149.333zM298.667 746.667h85.333v42.667h-85.333v85.333h-42.667v-85.333h-85.333v-42.667h85.333v-85.333h42.667v85.333z"
      ],
      "grid": 16,
      "tags": [
        "Artboard Copy 2"
      ],
      "defaultCode": 59648
    },
    {
      "paths": [
        "M268.8 853.333h-119.467c0-321.96 251.444-584.811 567.467-600.474v-103.526l221.867 162.909-221.867 164.905v-103.86c-250.006 15.517-448 224.509-448 480.046z"
      ],
      "grid": 16,
      "tags": [
        "Artboard Copy 3"
      ],
      "defaultCode": 59649
    },
    {
      "paths": [
        "M819.2 853.333h119.467c0-321.96-251.444-584.811-567.467-600.474v-103.526l-221.867 162.909 221.867 164.905v-103.86c250.006 15.517 448 224.509 448 480.046z"
      ],
      "grid": 16,
      "tags": [
        "Artboard Copy 4"
      ],
      "defaultCode": 59650
    },
    {
      "paths": [
        "M304.538 785.479c-51.774-8.149-79.668-22.875-79.668-22.875v26.99l-75.536-76.714 75.536-25.141v32.198c0 0 33.967 11.557 77.453 19.447 0.070-95.794 28.146-148.973 28.146-148.973h-26.99l92.448-78.411 20.703 78.411h-43.495c0 0-26.641 78.297-26.641 149.333 0 1.869 0.018 3.742 0.054 5.619 9.216 0.771 18.496 1.214 27.654 1.214 71.036 0 149.333-26.641 149.333-26.641v-43.495l78.411 20.703-78.411 92.448v-26.99c0 0-53.313 28.146-149.333 28.146-8.306 0-16.293-0.211-23.954-0.595 7.341 53.238 22.886 98.924 22.886 98.924h32.198l-25.141 75.536-76.714-75.536h26.99c0 0-19.29-36.539-25.931-103.599zM485.264 938.667c0-10.078 0-23.854 0-42.667h142.423c101.073 0 182.979-95.571 182.979-213.491v-255.684h-512v106.758c-4.159 0.195-25.597 0.162-42.667 0.101v-234.859c0-141.472 100.317-256.158 224.124-256.158h149.085c123.78 0 224.124 114.617 224.124 256.158v383.684c0 141.472-100.317 256.158-224.124 256.158h-143.945zM810.667 383.842v-85.018c0-117.952-81.901-213.491-182.979-213.491h-146.042c-101.073 0-182.979 95.571-182.979 213.491v85.018h512zM490.667 192.007c0-35.35 28.726-64.007 64-64.007 35.346 0 64 28.771 64 64.007v85.319c0 35.35-28.726 64.007-64 64.007-35.346 0-64-28.771-64-64.007v-85.319zM512 191.959v85.414c0 23.71 19.103 42.626 42.667 42.626 23.728 0 42.667-19.084 42.667-42.626v-85.414c0-23.71-19.103-42.626-42.667-42.626-23.728 0-42.667 19.084-42.667 42.626zM511.839 118.195v0c-25.405 14.787-42.505 42.314-42.505 73.812v85.319c0 31.461 17.096 59.005 42.505 73.803v11.379h-191.839v-57.608c0-109.493 75.076-198.234 167.721-198.234h24.117v11.528z"
      ],
      "grid": 16,
      "tags": [
        "Artboard Copy"
      ],
      "defaultCode": 59651
    },
    {
      "paths": [
        "M321.885 790.349h-129.885v22.057l-64-43.391 64-43.682v22.349h129.885v-129.016h-22.349l43.682-64 43.391 64h-22.057v129.016h126.115v-22.349l64 43.682-64 43.391v-22.057h-126.115v126.984h22.057l-43.391 64-43.682-64h22.349v-126.984zM485.264 938.667c0-10.078 0-23.854 0-42.667h142.423c101.073 0 182.979-95.571 182.979-213.491v-255.684h-512v106.758c-4.159 0.195-25.597 0.162-42.667 0.101v-234.859c0-141.472 100.317-256.158 224.124-256.158h149.085c123.78 0 224.124 114.617 224.124 256.158v383.684c0 141.472-100.317 256.158-224.124 256.158h-143.945zM810.667 383.842v-85.018c0-117.952-81.901-213.491-182.979-213.491h-146.042c-101.073 0-182.979 95.571-182.979 213.491v85.018h512zM490.667 192.007c0-35.35 28.726-64.007 64-64.007 35.346 0 64 28.771 64 64.007v85.319c0 35.35-28.726 64.007-64 64.007-35.346 0-64-28.771-64-64.007v-85.319zM512 191.959v85.414c0 23.71 19.103 42.626 42.667 42.626 23.728 0 42.667-19.084 42.667-42.626v-85.414c0-23.71-19.103-42.626-42.667-42.626-23.728 0-42.667 19.084-42.667 42.626zM597.333 118.195v-11.528h24.117c92.645 0 167.721 88.741 167.721 198.234v57.608h-191.839v-11.379c25.409-14.799 42.505-42.342 42.505-73.803v-85.319c0-31.498-17.101-59.025-42.505-73.812v0z"
      ],
      "grid": 16,
      "tags": [
        "Artboard"
      ],
      "defaultCode": 59652
    }
  ],
  "colorThemes": [
    [
      [
        0,
        0,
        0,
        1
      ],
      [
        255,
        255,
        255,
        1
      ]
    ]
  ],
  "colorThemeIdx": 0,
  "preferences": {
    "showGlyphs": true,
    "showCodes": true,
    "showQuickUse": true,
    "showQuickUse2": true,
    "showSVGs": true,
    "fontPref": {
      "prefix": "icon-",
      "metadata": {
        "fontFamily": "icomoon"
      },
      "metrics": {
        "emSize": 1024,
        "baseline": 6.25,
        "whitespace": 50
      },
      "embed": false
    },
    "imagePref": {
      "prefix": "icon-",
      "png": true,
      "useClassSelector": true,
      "color": 0,
      "bgColor": 16777215,
      "classSelector": ".icon"
    },
    "historySize": 50
  },
  "IcoMoonType": "icon-set"
}